{
  "setupFilesAfterEnv": ["./utils/startupDb.ts"],
  "moduleFileExtensions": ["js", "json", "ts"],
  "rootDir": ".",
  "testEnvironment": "node",
  "testRegex": ".integration-spec.ts$",
  "transform": {
    "^.+\\.(t|j)s$": "ts-jest"
  }
}
